<?xml version="1.0" encoding="UTF-8"?>
<!DOCTYPE svg  PUBLIC '-//W3C//DTD SVG 1.1//EN'
  'http://www.w3.org/Graphics/SVG/1.1/DTD/svg11.dtd'>
<svg enable-background="new 0 0 1000 1000" version="1.1" viewBox="0 0 1000 1000"
     xml:space="preserve" xmlns="http://www.w3.org/2000/svg">
<metadata> Svg Vector Icons : https://www.onlinewebfonts.com/icon </metadata>
  <g fill="#acacac">
    <path
      d="M826.7,10H173.3C83.3,10,10,83.3,10,173.3v653.3C10,916.7,83.3,990,173.3,990h653.3c90,0,163.3-73.3,163.3-163.3V173.3C990,83.3,916.7,10,826.7,10z M908.3,826.7c0,45.1-36.6,81.7-81.7,81.7H173.3c-45.1,0-81.7-36.6-81.7-81.7V173.3c0-45,36.6-81.7,81.7-81.7h653.3c45.1,0,81.7,36.6,81.7,81.7V826.7z"/>
    <path
      d="m769.6 295.8h-335.1c-22.6 0-40.8 18.3-40.8 40.8s18.2 40.8 40.8 40.8h335.1c22.6 0 40.8-18.3 40.8-40.8 0.1-22.5-18.2-40.8-40.8-40.8z"/>
    <path
      d="m341.1 206.9l-56.3 67.3c-10.2-5.6-21.7-9.1-34.1-9.1-15.5 0-29.7 5.1-41.5 13.5l-5.6-5.4c-8.1-7.8-21.1-7.6-28.9 0.5-7.9 8.1-7.6 21 0.5 28.9l8.9 8.6c-3.1 7.9-4.9 16.4-4.9 25.5 0 39.4 32.1 71.5 71.5 71.5s71.5-32.1 71.5-71.5c0-12-3.3-23.2-8.6-33.2l58.8-70.4c7.2-8.7 6-21.5-2.6-28.8-8.5-7.2-21.4-6-28.7 2.6zm-90.3 78.7c7.4 0 14.4 1.8 20.7 4.6l-22.4 26.8-24.2-23.3c7.7-4.7 16.2-8.1 25.9-8.1zm51 51.1c0 28.1-22.9 51-51 51s-51-22.9-51-51c0-3.1 1.2-5.8 1.8-8.8l35 33.8c3.8 3.7 9 5.7 14.2 5.7h1.1c5.7-0.3 11-2.9 14.6-7.3l32.3-38.7c1.5 4.9 3 9.8 3 15.3z"/>
    <path
      d="m250.8 428.5c-39.4 0-71.5 32.1-71.5 71.5s32.1 71.5 71.5 71.5 71.5-32.1 71.5-71.5-32.1-71.5-71.5-71.5zm0 122.5c-28.1 0-51-22.9-51-51s22.9-51 51-51 51 22.9 51 51-22.9 51-51 51z"/>
    <path
      d="m769.6 459.2h-335.1c-22.6 0-40.8 18.3-40.8 40.8s18.2 40.8 40.8 40.8h335.1c22.6 0 40.8-18.3 40.8-40.8s-18.2-40.8-40.8-40.8z"/>
    <path
      d="m250.8 591.9c-39.4 0-71.5 32.1-71.5 71.5s32.1 71.5 71.5 71.5 71.5-32.1 71.5-71.5-32.1-71.5-71.5-71.5zm0 122.5c-28.1 0-51-22.9-51-51s22.9-51 51-51 51 22.9 51 51-22.9 51-51 51z"/>
    <path
      d="m769.6 622.5h-335.1c-22.6 0-40.8 18.3-40.8 40.8s18.2 40.8 40.8 40.8h335.1c22.6 0 40.8-18.3 40.8-40.8 0.1-22.5-18.2-40.8-40.8-40.8z"/>
  </g>
</svg>
